# Blender MTL File: 'untitled.blend'
# Material Count: 11

newmtl ???
Ns 225.000000
Ka 1.000000 1.000000 1.000000
Kd 0.051269 0.048172 0.049707
Ks 0.500000 0.500000 0.500000
Ke 0.000000 0.000000 0.000000
Ni 1.450000
d 1.000000
illum 2

newmtl aspero
Ns 225.000000
Ka 1.000000 1.000000 1.000000
Kd 0.800000 0.800000 0.800000
Ks 0.500000 0.500000 0.500000
Ke 0.000000 0.000000 0.000000
Ni 1.450000
d 1.000000
illum 2

newmtl base
Ns 225.000000
Ka 1.000000 1.000000 1.000000
Kd 0.042311 0.039546 0.040915
Ks 0.500000 0.500000 0.500000
Ke 0.000000 0.000000 0.000000
Ni 1.450000
d 1.000000
illum 2

newmtl boton
Ns 225.000000
Ka 1.000000 1.000000 1.000000
Kd 0.034340 0.031896 0.033105
Ks 0.500000 0.500000 0.500000
Ke 0.000000 0.000000 0.000000
Ni 1.450000
d 1.000000
illum 2

newmtl cartucho
Ns 225.000000
Ka 1.000000 1.000000 1.000000
Kd 0.043735 0.040915 0.042311
Ks 0.500000 0.500000 0.500000
Ke 0.000000 0.000000 0.000000
Ni 1.450000
d 1.000000
illum 2

newmtl corredera
Ns 225.000000
Ka 1.000000 1.000000 1.000000
Kd 0.059511 0.056128 0.057805
Ks 0.500000 0.500000 0.500000
Ke 0.000000 0.000000 0.000000
Ni 1.450000
d 1.000000
illum 2

newmtl corredera_2
Ns 225.000000
Ka 1.000000 1.000000 1.000000
Kd 0.496933 0.496933 0.496933
Ks 0.500000 0.500000 0.500000
Ke 0.000000 0.000000 0.000000
Ni 1.450000
d 1.000000
illum 2

newmtl gatillo
Ns 225.000000
Ka 1.000000 1.000000 1.000000
Kd 0.063010 0.056128 0.057805
Ks 0.500000 0.500000 0.500000
Ke 0.000000 0.000000 0.000000
Ni 1.450000
d 1.000000
illum 2

newmtl pieza_3
Ns 225.000000
Ka 1.000000 1.000000 1.000000
Kd 0.038204 0.035601 0.036889
Ks 0.500000 0.500000 0.500000
Ke 0.000000 0.000000 0.000000
Ni 1.450000
d 1.000000
illum 2

newmtl pieza_pequeña_1
Ns 225.000000
Ka 1.000000 1.000000 1.000000
Kd 0.034340 0.031896 0.033105
Ks 0.500000 0.500000 0.500000
Ke 0.000000 0.000000 0.000000
Ni 1.450000
d 1.000000
illum 2

newmtl pieza_pequeña_2
Ns 225.000000
Ka 1.000000 1.000000 1.000000
Kd 0.114435 0.102242 0.093059
Ks 0.500000 0.500000 0.500000
Ke 0.000000 0.000000 0.000000
Ni 1.450000
d 1.000000
illum 2
